{
    "antifeatures": {
        "Ads": "Tiu ĉi aplikaĵo enhavas reklamojn",
        "DisabledAlgorithm": "Tiu ĉi aplikaĵo posedas malfortan sekurecan subskribon",
        "KnownVuln": "Tiu ĉi aplikaĵo posedas sekurecan vundeblon",
        "NoSourceSince": "La fontkodo ne estas plu disponebla, neniuj eblaj ĝisdatigoj",
        "NonFreeAdd": "Tiu ĉi aplikaĵo favoras neliberajn aldonaĵojn",
        "NonFreeAssets": "Tiu ĉi aplikaĵo enhavas neliberan enhavon",
        "NonFreeDep": "Tiu ĉi aplikaĵo dependas de aliaj neliberaj aplikaĵoj",
        "NonFreeNet": "Tiu ĉi aplikaĵo favoras neliberajn retservojn",
        "Tracking": "Tiu ĉi aplikaĵo spuras kaj raportas vian agadon",
        "UpstreamNonFree": "La fontkodo ne estas tute libera"
    },
    "index": {
        "download_fdroid": "Elŝuti F-Droid",
        "gpg_signature": "PGP-subskribo",
        "introduction": "F‑Droid estas instalebla katalogo de libera kaj malfermkoda programaro por operaciumo Android. La kliento plifaciligas foliumi, instali kaj spuri ĝisdatigojn ĉe via aparato.",
        "screenshot": "Ekrankopio de F-Droid ĉe Android",
        "title": "Kio estas F-Droid?"
    },
    "navigation": {
        "about": "Pri",
        "browse": "Esplori",
        "contribute": "Kontribui",
        "documentation": "Dokumentaro",
        "forum": "Forumo",
        "issues": "Problemoj",
        "news": "Novaĵoj"
    },
    "package": {
        "anti_features": "Fiebloj",
        "anti_features_warning": "Tiu ĉi aplikaĵo enhavas eblojn, kiujn vi eble ne ŝatas.",
        "author": "Aŭtoro",
        "build_metadata": "Kompilaj metadatumoj",
        "changelog": "Ŝanĝoprotokolo",
        "donate": "Donaci",
        "download": "Elŝuti [file_extension]",
        "flattr": "Flattr",
        "gpg_signature": "PGP-subskribo",
        "issue_tracker": "Erar-spurilo",
        "liberapay": "Liberapay",
        "license": "Permesilo",
        "minimum_android_version": "Tiu ĉi versio postulas Androidon [android_version] aŭ pli novan.",
        "new_in_version": "Novaj en versio [latest_version]",
        "packages": "Pakaĵoj",
        "permissions": "Permesoj",
        "signed_by_developer": "Ĝi estas kompilita kaj subskribita de la programisto mem.",
        "signed_by_fdroid": "Ĝi estas kompilita kaj subskribita de F-Droid kaj oni garantias identecon kun <a href=\"[source_code_url]\">tiu ĉi fontkoda pakaĵo</a>.",
        "source_code": "Fontkodo",
        "suggest_downloading_via_fdroid": "Kvankam APK-oj elŝuteblas sube, vi devus scii, ke per instali tiumaniere vi ne ricevos sciigojn pri ĝisdatigoj kaj tio estas malpli sekura maniero por elŝuti. Ni konsilas por ke vi instalu klienton F-Droid kaj uzu ĝin.",
        "technical_info": "Teĥnikaj detaloj",
        "translation": "Traduki",
        "version_info": "<b>Versio [package_version]</b> ([package_version_code]) - aldonita je [package_added_date]",
        "website": "Retejo"
    },
    "permissions": {
        "permdesc_acceptHandovers": "Permesas al aplikaĵo pluigi telefonvokon startigitan per alia aplikaĵo.",
        "permdesc_accessBackgroundLocation": "Se tiu ĉi permeso estas donita kune kun permeso por aliri proksimuman aŭ precizan pozicion, la aplikaĵo povas determini pozicion laborante fone.",
        "permdesc_accessCoarseLocation": "Tiu ĉi aplikaĵo povas determini vian pozicion per sendrataj retoj (Wi-Fi, GSM), sed nur kiam la aplikaĵo laboras malfone. Tiuj pozici-trovaj servoj estu aktivaj kaj disponeblaj en via telefono por ke aplikaĵo povu uzi ilin.",
        "permdesc_accessDrmCertificates": "Permesas al aplikaĵo aldoni kaj uzi atestilojn DRM. Neniam uzata de kutimaj aplikaĵoj.",
        "permdesc_accessFineLocation": "Tiu ĉi aplikaĵo povas determini vian precizan pozicion (per GPS kaj sendrataj retoj), sed nur kiam la aplikaĵo laboras malfone. Tiuj pozici-trovaj servoj estu aktivaj kaj disponeblaj en via telefono por ke la aplikaĵo povu uzi ilin. Povas pliigi konsumon da baterio.",
        "permdesc_accessImsCallService": "Permesas al aplikaĵo uzi la servon IMS por ekigi telefonvokojn sen via ago.",
        "permdesc_accessLocationExtraCommands": "Permesas al aplikaĵo aliri kromajn ordonojn por pozici-provizanto. Aplikaĵoj kun tiu ĉi permeso povas influi funkciadon de GPS aŭ aliaj pozici-trovaj servoj.",
        "permdesc_accessNetworkConditions": "Permesas al aplikaĵo observi aŭskultadon de stato de reto. Neniam uzata de kutimaj aplikaĵoj.",
        "permdesc_accessNetworkState": "Permesas al aplikaĵo legi informojn pri retaj konektoj – ekz. pri disponeblaj kaj konektitaj retoj.",
        "permdesc_accessNotifications": "Permesas al aplikaĵo aliri, kontroli kaj forigi sciigojn, inkluzivante tiujn, kiuj estas anoncitaj de aliaj aplikaĵoj.",
        "permdesc_accessWifiState": "Permesas  al aplikaĵo aliri informojn pri vifiaj (Wi-Fi) retoj – ekz. ĉu vifio estas enŝaltita kaj nomojn de aparatoj konektitaj per vifio.",
        "permdesc_accessWimaxState": "Permesas al aplikaĵo determini ĉu WiMAX estas aktiva kaj akiri informojn pri ĉiuj konektitaj retoj WiMAX.",
        "permdesc_access_notification_policy": "Permesas al aplikaĵo legi kaj ŝanĝi agordojn de reĝimo ne “ne ĝenu min”.",
        "permdesc_activityRecognition": "Tiu ĉi aplikaĵo povas rekoni vian korpan aktivecon.",
        "permdesc_addVoicemail": "Permesas al aplikaĵo aldoni mesaĝojn al via voĉpoŝto.",
        "permdesc_answerPhoneCalls": "Permesas al aplikaĵo respondi al alvenantaj telefonvokoj.",
        "permdesc_audioWrite": "Permesas al aplikaĵo modifi vian kolekton de muzikaĵoj.",
        "permdesc_bindCarrierMessagingService": "Permesas al posedanto krei ligon al la plej supera nivelo de interfaco de servo por transsendi mesaĝojn per provizanto. Neniam uzata de kutimaj aplikaĵoj.",
        "permdesc_bindCarrierServices": "Permesas al posedanto ligi al servoj de provizanto. Neniam uzata de kutimaj aplikaĵoj.",
        "permdesc_bindConditionProviderService": "Permesas al posedanto ligi al la plej supera nivelo de interfaco de servo por provizi kondiĉojn. Neniam uzata de kutimaj aplikaĵoj.",
        "permdesc_bindDreamService": "Permesas al posedanto ligi al la plej supera nivelo de interfaco de servo ekrankurteno. Neniam uzata de kutimaj aplikaĵoj.",
        "permdesc_bindNotificationListenerService": "Permesas al posedanto ligi al la plej supera nivelo de interfaco por servo sciig-ricevilo. Neniam uzata de kutimaj aplikaĵoj.",
        "permdesc_bind_connection_service": "Permesas al aplikaĵo interagi kun telefonaj servoj por ekigi/ricevi telefonvokojn.",
        "permdesc_bind_incall_service": "Permesas al aplikaĵo administri kiel kaj kiam la uzanto vidas la ekranon de telefonvoko.",
        "permdesc_bluetooth": "Permesas al aplikaĵo vidi agordojn de Bludento ĉe la telefono, kaj fari kaj akcepti konektojn kun kuplitajn aparatojn.",
        "permdesc_bluetoothAdmin": "Permesas al aplikaĵo agordi la lokan telefonon per Bludento, kaj serĉi kaj kupli forajn aparatojn.",
        "permdesc_bodySensors": "Permesas al aplikaĵo aliri datumojn de sentilojn, kiuj observas vian korpan staton – ekz. vian pulson.",
        "permdesc_broadcastSticky": "Permesas al aplikaĵo sendi persistajn elsendojn, kiuj restos aktivaj post fini konekton. Troa uzo povas malplirapidigi la aparaton aŭ malstabiligi ĝin pro tro uzo de memoro.",
        "permdesc_callCompanionApp": "Permesas al aplikaĵo rigardi kaj administri aktivajn telefonvokojn en la aparato. Inkluzivante numerojn de telefonoj kaj statojn de telefonvokoj.",
        "permdesc_callPhone": "Permesas al aplikaĵo telefonvoki sen via ago. Povas kaŭzi neatenditajn pagojn aŭ telefonvokojn. La aplikaĵo ne povas telefonvoki alarmajn numerojn. Malicaj aplikaĵoj povos generi kostojn per fari telefonvokojn sen via permeso.",
        "permdesc_camera": "Tiu ĉi aplikaĵo povas en ĉiu momento fari fotojn kaj registri filemtojn per la fotilo.",
        "permdesc_changeNetworkState": "Permesas al aplikaĵo ŝanĝi staton de reta konekto.",
        "permdesc_changeTetherState": "Permesas al aplikaĵo ŝanĝi staton de reta konekto per alia aparato (tethering).",
        "permdesc_changeWifiMulticastState": "Permesas al aplikaĵo ricevi paketojn senditajn al ĉiuj aparatoj (ne nur al via) en vifia (Wi-Fi) reto uzante plurelsendadon (multicast). Kaŭzas plian konsumon de energio ol en ne plurelsenda reĝimo.",
        "permdesc_changeWifiState": "Permesas al aplikaĵo konekti kaj malkonekti al vifiaj (Wi-Fi) retoj kaj ŝanĝi agordojn pri vifiaj retoj.",
        "permdesc_changeWimaxState": "Permesas al aplikaĵo konekti kaj malkonekti la telefonon kun retoj WiMAX.",
        "permdesc_connection_manager": "Permesas al aplikaĵo administri telekomunikajn konektojn.",
        "permdesc_control_incall_experience": "Permesas al aplikaĵo liveri al uzanto eblon telefoni.",
        "permdesc_createNetworkSockets": "Permesas al aplikaĵo krei konekt‑interfacojn kaj uzi nekutimajn retajn protokolojn. La ret‑foliumilo kaj aliaj aplikaĵoj liveras rimedojn por sendi datumojn al la interreto, do ili ne bezonas tiun ĉi permeson.",
        "permdesc_disableKeyguard": "Permesas al aplikaĵo malaktivigi ekran‑ŝloson kaj rilatajn pasvortojn. Ekzemplo: la telefono malaktivigas ekran‑ŝloson dum ricevi alvenantan telefonvokon kaj reaktivigas ĝin je fino de telefona interparolado.",
        "permdesc_enableCarMode": "Permesas al aplikaĵo aktivigi aŭtomobilan reĝimon.",
        "permdesc_expandStatusBar": "Permesas al aplikaĵo mal-/etendi la statan breton.",
        "permdesc_foregroundService": "Permesas al aplikaĵo uzi servojn je malfono.",
        "permdesc_getAccounts": "Permesas al aplikaĵo akiri liston de kontoj konservitaj en la telefono. Povas inkluzivi ĉiujn kontojn kreitajn de instalitaj aplikaĵoj.",
        "permdesc_getPackageSize": "Permesas al aplikaĵo ricevi sian kodon, datumojn kaj grandon de kaŝmemoro.",
        "permdesc_getTasks": "Permesas al aplikaĵo ricevi informojn pri nuntempe kaj antaŭe funkciantaj taskoj. Tio ĉi ebligas la aplikaĵo akiri informojn pri kiuj aplikaĵoj estas uzataj ĉe la aparato.",
        "permdesc_handoverStatus": "Permesas al aplikaĵo ricevi informojn pri nunajn transigoj Android Beam.",
        "permdesc_imagesWrite": "Permesas al aplikaĵo modifi vian kolekton de fotoj.",
        "permdesc_install_shortcut": "Permesas al aplikaĵo aldoni ligilojn al la ĉefekrano sen via ago.",
        "permdesc_invokeCarrierSetup": "Permesas elvoki la agordan aplikaĵon de telekomunik‑provizanto. Neniam uzata de kutimaj aplikaĵoj.",
        "permdesc_killBackgroundProcesses": "Permesas al aplikaĵo fini fonajn taskojn de aliaj aplikaĵoj. Povas ĉesigi funkciadon de aliaj aplikaĵoj.",
        "permdesc_manageFace": "Permesas al aplikaĵo aktivigi metodojn por aldoni kaj forigi ŝablonojn de vizaĝoj.",
        "permdesc_manageFingerprint": "Permesas al aplikaĵo aktivigi metodojn por aldoni kaj forigi ŝablonojn de fingrospuroj.",
        "permdesc_manageNetworkPolicy": "Permesas al aplikaĵo administri politikojn pri retoj kaj difini regulojn de aplikaĵoj.",
        "permdesc_manageOwnCalls": "Permesas al aplikaĵo enkursigi telefonvokojn tra la operaciumo por plibonigi ilian kvaliton.",
        "permdesc_manageProfileAndDeviceOwners": "Permesas al aplikaĵo agordi estrojn de profiloj kaj de aparato.",
        "permdesc_mediaLocation": "Permesas al aplikaĵo legi lokojn el via kolekto de aŭdvidaĵoj.",
        "permdesc_modifyAudioSettings": "Permesas al aplikaĵo modifi ĝeneralajn sonajn agordojn: sonfortecon kaj eligan laŭtparolilon.",
        "permdesc_modifyNetworkAccounting": "Permesas al aplikaĵo modifi kiel kalkuli uzadon de reto de aliaj aplikaĵoj. Neniam uzata de kutimaj aplikaĵoj.",
        "permdesc_nfc": "Permesas al aplikaĵo komuniki kun glumarkoj, kartoj kaj legiloj NFC (Near Field Communication).",
        "permdesc_persistentActivity": "Permesas al aplikaĵo por daŭre konservi siajn partojn en memoro. Povas malpliigi memoron disponeblan por aliaj aplikaĵoj kaj malrapidigi funkciadon de telefono.",
        "permdesc_processOutgoingCalls": "Permesas al aplikaĵo rigardi telefonnumeron de la elvenanta konekto, kaj ĉesigi aŭ alidirekti ĝin.",
        "permdesc_readCalendar": "Tiu ĉi aplikaĵo povas legi ĉiujn okazaĵojn konservitajn en via telefono, kaj kunhavigi aŭ konservi datumojn de via kalendaro.",
        "permdesc_readCallLog": "Tiu ĉi aplikaĵo povas legi vian historion de telefonvokoj.",
        "permdesc_readCellBroadcasts": "Permesas al aplikaĵo legi elsendajn mesaĝojn ricevitajn de via aparato. Elsendaj mesaĝoj de telefona reto estas sendataj en iuj lokoj por averti vin pri danĝeraj situacioj. Malicaj aplikaĵoj povos influi al efikeco aŭ agado de via aparato dum ricevi elsendan mesaĝon.",
        "permdesc_readContacts": "Permesas al aplikaĵo legi datumojn pri kontaktoj konservitaj en via telefono, inkluzivante kiel ofte vi telefonis, retpoŝtis aŭ komunikiĝis per aliaj rimedoj kun specifaj personoj. Tiu ĉi permeso ebligas al aplikaĵoj konservi datumojn pri kontaktoj kaj malicaj programoj povas kunhavigi tiujn datumojn sen via scio.",
        "permdesc_readHistoryBookmarks": "Permesas al aplikaĵo legi historion de ĉiuj vizititaj retejaj adresoj kaj ĉiujn legosignojn en la Androida ret‑foliumilo. Rimarko: tiu ĉi permeso ne devas apliki al ret‑foliumiloj de aliaj firmaoj kaj al aliaj aplikaĵoj.",
        "permdesc_readInstallSessions": "Permesas al aplikaĵo legi instalajn seancojn. Ebligas akiri detalojn pri aktivaj instaladoj de pakaĵoj.",
        "permdesc_readNetworkUsageHistory": "Permesas al aplikaĵo legi historian uzadon de specifaj retoj de specifaj aplikaĵoj.",
        "permdesc_readPhoneNumbers": "Permesas al aplikaĵo aliri telefonajn numerojn en la aparato.",
        "permdesc_readPhoneState": "Permesas al aplikaĵo aliri telefonajn eblaĵojn de la aparato. Aplikaĵo kun tiu ĉi permeso povas legi telefonan numeron kaj identigilon de via aparato, kontroli ĉu telefona konekto estas aktiva, kaj legi la nune telefonatan numeron.",
        "permdesc_readSms": "Tiu ĉi aplikaĵo povas legi ĉiujn SMS-ajn mesaĝojn konservitajn en via telefono.",
        "permdesc_readSyncSettings": "Permesas al aplikaĵo legi agordojn pri samtempigo (sinkronigo). Ekzemple ebligas determini ĉu la aplikaĵo Homoj estas samtempigata kun konto.",
        "permdesc_readSyncStats": "Permesas al aplikaĵo legi statistikojn pri samtempigo (sinkronigo) de konto, inkluzivante historion de samtempigaj okazaĵoj kaj kvanton da samtempigitaj datumoj.",
        "permdesc_receiveBootCompleted": "Permesas al aplikaĵo starti tuj post starto de la operaciumo. Povas malrapidigi starton de la telefono kaj malrapidigi ĝian funkciadon pro konstante laboranta aplikaĵo.",
        "permdesc_receiveMms": "Permesas al aplikaĵo ricevi kaj pritrakti mesaĝojn MMS. La aplikaĵo povas legi kaj forigi mesaĝojn senditajn al vi sen via scio.",
        "permdesc_receiveSms": "Permesas al aplikaĵo ricevi kaj pritrakti mesaĝojn SMS. La aplikaĵo povas legi kaj forigi mesaĝojn senditajn al vi sen via scio.",
        "permdesc_receiveWapPush": "Permesas al aplikaĵo ricevi kaj pritrakti mesaĝojn WAP. La aplikaĵo povas legi kaj forigi mesaĝojn senditajn al vi sen via scio.",
        "permdesc_recordAudio": "Tiu ĉi aplikaĵo povas ĉiumomente registri sonon per mikrofono.",
        "permdesc_register_call_provider": "Permesas al aplikaĵo registri novajn telekomunikajn konektojn.",
        "permdesc_register_sim_subscription": "Permesas al aplikaĵo registri novajn telekomunikajn konektojn SIM.",
        "permdesc_removeDrmCertificates": "Permesas al aplikaĵo forigi atestilojn DRM. Neniam uzata de kutimaj aplikaĵoj.",
        "permdesc_reorderTasks": "Permesas al aplikaĵo movi taskojn inter fono kaj malfono. La aplikaĵo povas fari tion sen via ago.",
        "permdesc_requestDeletePackages": "Permesas al aplikaĵo peti pri forigi pakaĵojn.",
        "permdesc_requestIgnoreBatteryOptimizations": "Permesas al aplikaĵo peti pri permeso por ignori optimumigon de baterio por tiu aplikaĵo.",
        "permdesc_requestInstallPackages": "Permesas al aplikaĵo peti pri instali pakaĵojn.",
        "permdesc_requestPasswordComplexity": "Permesas al aplikaĵo ekkoni malsimplecon de ekran‑ŝloso (alta, meza, malalta aŭ nenia), kiu indikas eblan longecon kaj specon de la ekran‑ŝloso. La aplikaĵo ankaŭ povas sugesti al uzanto plifortigi la ekran‑ŝloson, sed li povas ignori kaj fermi sciigon. Rimarku, ke la ekran‑ŝloso ne estas konservita kiel platteksto, do la aplikaĵo ne scias la ekzaktan pasvorton.",
        "permdesc_route_media_output": "Permesas al aplikaĵo alidirekti aŭdvidaĵan eligon al aliaj eksteraj aparatoj.",
        "permdesc_runInBackground": "Tiu ĉi aplikaĵo povas funkcii fone. Povas pliigi konsumon da baterio.",
        "permdesc_sdcardRead": "Permesas al aplikaĵo legi enhavon de via komuna konservejo.",
        "permdesc_sdcardWrite": "Permesas al aplikaĵo skribi al komuna konservejo.",
        "permdesc_sendSms": "Permesas al aplikaĵo sendi mesaĝojn SMS. Povas kaŭzi senatendajn elspezojn. Malicaj aplikaĵoj povos generi kostojn per sendi mesaĝojn sen via permeso.",
        "permdesc_setAlarm": "Permesas al aplikaĵo agordi alarmon per la instalita aplikaĵo Horloĝo. Povas ne funkcii en iuj aplikaĵoj de horloĝo.",
        "permdesc_setInputCalibration": "Permesas al aplikaĵo modifi agordon pri kalibri la tuŝekranon. Neniam uzata de kutimaj aplikaĵoj.",
        "permdesc_setTimeZone": "Permesas al aplikaĵo ŝanĝi horzonon en la telefono.",
        "permdesc_setWallpaper": "Permesas al aplikaĵo agordi la Androidan ekranfonon.",
        "permdesc_setWallpaperHints": "Permesas al aplikaĵo determini konsilojn pri dimensio de la Androida ekranfono.",
        "permdesc_sim_communication": "Permesas al aplikaĵo sendi ordonojn al la karto SIM. Tio ĉe estas tre danĝera.",
        "permdesc_startViewPermissionUsage": "Permesas al posedanto ekigi uzadon de permesoj por aplikaĵo. Neniam uzata de kutimaj aplikaĵoj.",
        "permdesc_statusBar": "Permesas al aplikaĵo malaktivigi la statan breton kaj forigi sistemajn emblemojn.",
        "permdesc_statusBarService": "Permesas al aplikaĵo esti sur la stata breto.",
        "permdesc_subscribedFeedsRead": "Permesas al aplikaĵo akiri detalojn pri la nune samtempigataj abonfluoj.",
        "permdesc_systemAlertWindow": "Tiu ĉi aplikaĵo povas aperi super aliaj aplikaĵoj aŭ partoj de ekrano. Povas malfaciligi kutiman uzon de aliaj aplikaĵoj kaj ŝanĝi kiel aliaj aplikaĵoj aperas.",
        "permdesc_transmitIr": "Permesas al aplikaĵo uzi transruĝan konektilon de la telefono.",
        "permdesc_uninstall_shortcut": "Permesas al aplikaĵo forigi emblemojn el la ĉefekrano sen via ago.",
        "permdesc_useBiometric": "Permesas al aplikaĵo uzi biometrikan aparaton por aŭtentigi.",
        "permdesc_useDataInBackground": "Tiu ĉi aplikaĵo povas transsendi datumojn fone. Povas pliigi konsumon da datumoj.",
        "permdesc_useFaceAuthentication": "Permesas al aplikaĵo uzi aparaton por rekoni vizaĝon por aŭtentigi.",
        "permdesc_useFingerprint": "Permesas al aplikaĵo uzi legilon de fingrospuro por aŭtentigi.",
        "permdesc_use_sip": "Permesas al aplikaĵo ekigi kaj ricevi telefonvokojn SIP.",
        "permdesc_vibrate": "Permesas al aplikaĵo kontroli la vibrilon.",
        "permdesc_videoWrite": "Permesas al aplikaĵo modifi vian kolekton de filmetoj.",
        "permdesc_wakeLock": "Permesas al aplikaĵo antaŭmalhelpi al telefono ekigi la dormetan reĝimon.",
        "permdesc_writeCalendar": "Tiu ĉi aplikaĵo povas aldoni, forigi kaj ŝanĝi okazaĵojn en kalendaro de via telefono. Tiu ĉi aplikaĵo povas sendi mesaĝojn, kiuj aspektas kiel esti kreitaj de kalendarestroj kaj ŝanĝi okazaĵojn ne sciante iliajn estrojn.",
        "permdesc_writeCallLog": "Permesas al aplikaĵo modifi protokolon de telefonvokoj, inkluzivante datumojn pri alvenantaj kaj elvenantaj telefonvokoj. Malicaj aplikaĵoj povos uzi tion ĉi por forviŝi aŭ modifi vian protokolon de telefonvokoj.",
        "permdesc_writeContacts": "Permesas al aplikaĵo modifi datumojn pri viaj kontaktoj konservitaj en la telefono, inkluzivante kiel ofte vi telefonis, retpoŝtis aŭ komunikiĝis per aliaj rimedoj kun specifaj personoj, Aplikaĵoj kun tiu ĉi permeso povas forigi datumojn de kontaktoj.",
        "permdesc_writeGeolocationPermissions": "Permesas al aplikaĵo modifi permesoj de la ret‑foliumilo pri geografia pozicio. Malicaj aplikaĵoj povos uzi tion ĉi por sendi informoj pri pozicio al ajnaj retejoj.",
        "permdesc_writeHistoryBookmarks": "Permesas al aplikaĵo modifi historion kaj konservitajn legosignojn de la Androida ret‑foliumilo. Aplikaĵo povos forigi aŭ modifi datumojn de la ret‑foliumilo. Rimarko: tiu ĉi permeso ne devas apliki al ret‑foliumiloj de aliaj firmaoj kaj al aliaj aplikaĵoj.",
        "permdesc_writeSettings": "Permesas al aplikaĵo modifi sistemajn agordojn. Malicaj aplikaĵoj povos uzi tion ĉi por difekti agordaron de la operaciumo.",
        "permdesc_writeSyncSettings": "Permesas al aplikaĵo modifi agordojn pri samtempigo (sinkronigo). Ekzemple ebligas aktivigi samtempigon kun konto por la aplikaĵo Homoj.",
        "permgroupbackgroundrequest_location": "Permesi al <b>",
        "permgroupbackgroundrequestdetail_location": "Nuntempe la aplikaĵo havas aliron al via pozicio nur tiam, kiam vi ĝin uzas",
        "permgroupdesc_activityRecognition": "aliro al via korpa aktiveco",
        "permgroupdesc_calendar": "aliro al kalendaro",
        "permgroupdesc_calllog": "legi kaj skribi al protokolo de telefonvokoj",
        "permgroupdesc_camera": "fari fotojn kaj registri filmetojn",
        "permgroupdesc_contacts": "aliro al kontaktoj",
        "permgroupdesc_location": "aliro al pozicio de tiu ĉi aparato",
        "permgroupdesc_microphone": "registri sonon",
        "permgroupdesc_phone": "ekigi kaj administri telefonvokojn",
        "permgroupdesc_sensors": "aliro al sentilo de viaj viv-funkcioj",
        "permgroupdesc_sms": "sendi kaj vidigi SMS‑mesaĝojn",
        "permgroupdesc_storage": "aliro al fotoj, aŭdvidaĵoj kaj dosieroj en via aparato",
        "permgrouplab_activityRecognition": "Korpa aktiveco",
        "permgrouplab_calendar": "Kalendaro",
        "permgrouplab_calllog": "Protokolo pri telefonvokoj",
        "permgrouplab_camera": "Fotilo",
        "permgrouplab_contacts": "Kontaktoj",
        "permgrouplab_location": "Pozicio",
        "permgrouplab_microphone": "Mikrofono",
        "permgrouplab_phone": "Telefono",
        "permgrouplab_sensors": "Sentiloj sur korpo",
        "permgrouplab_sms": "SMS",
        "permgrouplab_storage": "Konservejo",
        "permgrouprequest_activityRecognition": "Permesi al <b>",
        "permgrouprequest_calendar": "Permesi al <b>",
        "permgrouprequest_calllog": "Permesi al <b>",
        "permgrouprequest_camera": "Permesi al <b>",
        "permgrouprequest_contacts": "Permesi al <b>",
        "permgrouprequest_location": "Permesi al <b>",
        "permgrouprequest_microphone": "Permesi al <b>",
        "permgrouprequest_phone": "Permesi al <b>",
        "permgrouprequest_sensors": "Permesi al <b>",
        "permgrouprequest_sms": "Permesi al <b>",
        "permgrouprequest_storage": "Permesi al <b>",
        "permgrouprequestdetail_location": "La aplikaĵo havos aliron al via pozicio nur tiam, kiam vi ĝin uzos",
        "permlab_acceptHandover": "pluigi telefonvokon de alia aplikaĵo",
        "permlab_accessBackgroundLocation": "aliro al pozicio en la fono",
        "permlab_accessCoarseLocation": "aliro al proksimuma pozicio (surbaze de retoj) nur en la malfono",
        "permlab_accessDrmCertificates": "aliro al DRM-atestiloj",
        "permlab_accessFineLocation": "aliro al preciza pozicio nur en la malfono",
        "permlab_accessImsCallService": "aliro al telefona servo IMS",
        "permlab_accessLocationExtraCommands": "aliro al kromaj ordonoj de pozici‑provizanto",
        "permlab_accessNetworkConditions": "observi aŭskultadon de stato de reto",
        "permlab_accessNetworkState": "vidigi retajn konektojn",
        "permlab_accessNotifications": "aliro al sciigoj",
        "permlab_accessWifiState": "vidigi vifiajn konektojn",
        "permlab_accessWimaxState": "konekti kaj malkonekti kun WiMAX‑retoj",
        "permlab_access_notification_policy": "aliro al reĝimo “ne ĝenu min”",
        "permlab_activityRecognition": "rekoni korpan aktivecon",
        "permlab_addVoicemail": "aldoni al voĉpoŝto",
        "permlab_answerPhoneCalls": "respondi al telefonvokoj",
        "permlab_audioWrite": "modifi vian muzikan kolekton",
        "permlab_bindCarrierMessagingService": "ligi al servo por transsendi mesaĝojn per provizanto",
        "permlab_bindCarrierServices": "ligi al servoj de provizanto",
        "permlab_bindConditionProviderService": "ligi al servo por provizi kondiĉojn",
        "permlab_bindDreamService": "ligi al servo ekrankurteno",
        "permlab_bindNotificationListenerService": "ligi al servo sciig‑ricevilo",
        "permlab_bind_connection_service": "interagi kun telefonaj servoj",
        "permlab_bind_incall_service": "interagi kun ekrano de telefonvoko",
        "permlab_bluetooth": "kupli Bludentajn aparatojn",
        "permlab_bluetoothAdmin": "aliro al agordoj pri Bludento",
        "permlab_bodySensors": "aliro al sentiloj pri korpo (ekz. por observi pulson)",
        "permlab_broadcastSticky": "sendi persistajn elsendojn",
        "permlab_callCompanionApp": "rigardi kaj administri telefonvokojn",
        "permlab_callPhone": "senpere ekigi telefonvokon",
        "permlab_camera": "fari fotojn kaj filmetojn",
        "permlab_changeNetworkState": "ŝanĝi staton de retkonekto",
        "permlab_changeTetherState": "ŝanĝi staton de retkonekto per alia aparato",
        "permlab_changeWifiMulticastState": "ricevi vifiajn plursendojn",
        "permlab_changeWifiState": "konekti kaj malkonekti kun vifio",
        "permlab_changeWimaxState": "ŝanĝi staton de WiMAX",
        "permlab_connection_manager": "administri telekomunikajn konektojn",
        "permlab_control_incall_experience": "provizi al uzanto eblon telefoni",
        "permlab_createNetworkSockets": "plena aliro al reto",
        "permlab_disableKeyguard": "malaktivigi ekran‑ŝloson",
        "permlab_enableCarMode": "aktivigi aŭtomobilan reĝimon",
        "permlab_expandStatusBar": "mal-/etendi statan breton",
        "permlab_foregroundService": "ekigi servon je malfono",
        "permlab_getAccounts": "trovi kontojn ĉe la aparato",
        "permlab_getPackageSize": "mezuri spacon de aplikaĵa konservejo",
        "permlab_getTasks": "akiri funkciantajn aplikaĵojn",
        "permlab_handoverStatus": "ricevi staton de transigo Android Beam",
        "permlab_imagesWrite": "modifi vian fotan kolekton",
        "permlab_install_shortcut": "instali emblem‑ligilojn",
        "permlab_invokeCarrierSetup": "elvoki la agordan aplikaĵon de telekomunik‑provizanto",
        "permlab_killBackgroundProcesses": "fermi aliajn aplikaĵojn",
        "permlab_manageFace": "administri aparaton por aŭtentigi per vizaĝo",
        "permlab_manageFingerprint": "administri legilon de fingrospuroj",
        "permlab_manageNetworkPolicy": "administri politikojn pri retoj",
        "permlab_manageOwnCalls": "enkursigi telefonvokojn tra la operaciumo",
        "permlab_manageProfileAndDeviceOwners": "administri estrojn de profiloj kaj aparato",
        "permlab_mediaLocation": "legi lokojn el via aŭdvidaĵa kolekto",
        "permlab_modifyAudioSettings": "ŝanĝi sonajn agordojn",
        "permlab_modifyNetworkAccounting": "modifi kalkulon de reta uzado",
        "permlab_nfc": "administri konektojn Near Field Communication",
        "permlab_persistentActivity": "igi aplikaĵon ĉiam funkcianta",
        "permlab_processOutgoingCalls": "enkursigi elvenantajn telefonvokojn",
        "permlab_readCalendar": "legi okazaĵojn kaj informojn de kalendaro",
        "permlab_readCallLog": "legi historion de telefonvokoj",
        "permlab_readCellBroadcasts": "legi elsendajn mesaĝojn de telefonreto",
        "permlab_readContacts": "legi kontaktojn",
        "permlab_readHistoryBookmarks": "legi legosignojn kaj historion de retumo",
        "permlab_readInstallSessions": "legi instalajn seancojn",
        "permlab_readNetworkUsageHistory": "legi historian uzadon de reto",
        "permlab_readPhoneNumbers": "legi telefonnumerojn",
        "permlab_readPhoneState": "legi staton kaj identigilon de telefono",
        "permlab_readSms": "legi tekstajn mesaĝojn (SMS kaj MMS)",
        "permlab_readSyncSettings": "legi agordojn pri samtempigo",
        "permlab_readSyncStats": "legi statistikojn pri samtempigo",
        "permlab_receiveBootCompleted": "starti je starto de aparato",
        "permlab_receiveMms": "ricevi tekstajn mesaĝojn (MMS)",
        "permlab_receiveSms": "ricevi tekstajn mesaĝojn (SMS)",
        "permlab_receiveWapPush": "ricevi tekstajn mesaĝojn (WAP)",
        "permlab_recordAudio": "registri sonon",
        "permlab_register_call_provider": "registri novajn telekomunikajn konektojn",
        "permlab_register_sim_subscription": "registri novajn telekomunikajn konektojn SIM",
        "permlab_removeDrmCertificates": "forigi DRM‑atestilojn",
        "permlab_reorderTasks": "reordigi funkciantajn aplikaĵojn",
        "permlab_requestDeletePackages": "peti pri forigi pakaĵojn",
        "permlab_requestIgnoreBatteryOptimizations": "peti pri ignori optimumigon de baterio",
        "permlab_requestInstallPackages": "peti pri instali pakaĵojn",
        "permlab_requestPasswordComplexity": "peti pri informoj pri malsimpleco de ekran‑ŝloso",
        "permlab_route_media_output": "alidirekti aŭdvidaĵan eligon",
        "permlab_runInBackground": "funkcii en fono",
        "permlab_sdcardRead": "legi enhavon de via komuna konservejo",
        "permlab_sdcardWrite": "modifi kaj forigi enhavon de via komuna konservejo",
        "permlab_sendSms": "sendi kaj legi SMS‑ajn mesaĝojn",
        "permlab_setAlarm": "agordi alarmon",
        "permlab_setInputCalibration": "kalibri tuŝekranon",
        "permlab_setTimeZone": "agordi horzonon",
        "permlab_setWallpaper": "agordi ekranfonon",
        "permlab_setWallpaperHints": "alĝustigi dimension de ekranfono",
        "permlab_sim_communication": "sendi ordonojn al SIM‑karto",
        "permlab_startViewPermissionUsage": "montri uzadon de permesoj",
        "permlab_statusBar": "malaktivigi aŭ modifi la statan breton",
        "permlab_statusBarService": "esti sur la stata breto",
        "permlab_subscribedFeedsRead": "legi abonfluojn",
        "permlab_systemAlertWindow": "Tiu ĉi aplikaĵo povas aperi super aliaj aplikaĵoj",
        "permlab_transmitIr": "transigi per transruĝa konekto",
        "permlab_uninstall_shortcut": "malinstali emblem‑ligilojn",
        "permlab_useBiometric": "uzi biometrikan aparaton",
        "permlab_useDataInBackground": "transigi datumojn en fono",
        "permlab_useFaceAuthentication": "uzi aparaton por aŭtentigi per vizaĝo",
        "permlab_useFingerprint": "uzi legilon de fingrospuroj",
        "permlab_use_sip": "ekigi kaj ricevi telefonvokojn SIP",
        "permlab_vibrate": "kontroli vibrilon",
        "permlab_videoWrite": "modifi vian filmetan kolekton",
        "permlab_wakeLock": "malebligi al telefono dormeti",
        "permlab_writeCalendar": "aldoni kaj modifi okazaĵojn en kalendaro, kaj sendi retleterojn al gastoj sen sciigi estrojn",
        "permlab_writeCallLog": "skribi al protokolo de telefonvokoj",
        "permlab_writeContacts": "modifi kontaktojn",
        "permlab_writeGeolocationPermissions": "modifi permesojn de la ret‑foliumilo pri geografia pozicio",
        "permlab_writeHistoryBookmarks": "skribi al legosignoj kaj historio",
        "permlab_writeSettings": "modifi sistemajn agordojn",
        "permlab_writeSyncSettings": "mal-/aktivigi samtempigon"
    },
    "sidebars": {
        "donate": {
            "bank_transfer_name": "Nomo",
            "bitcoin_alt": "Donaci per Bitmono",
            "flattr_alt": "Donaci per Flattr",
            "heading": "Donaci",
            "hellotux": "👕 T-ĉemizoj 👕 el",
            "hellotux_alt": "HELLOTUX",
            "hellotux_donation": "F-Droid ricevos 3€ de ĉiu vendita T-ĉemizo.",
            "liberapay_alt": "Donaci per Liberapay",
            "litecoin_alt": "Donaci per Litecoin",
            "paypal_alt": "Donaci per PayPal",
            "powered_by_donations": "F-Droid estas subtenata per viaj donacoj!",
            "via_bank_transfer": "Ĝiro"
        },
        "lang": {
            "change": "Ŝanĝi"
        },
        "last_updated": {
            "heading": "Laste ĝisdatigitaj"
        },
        "latest_packages": {
            "heading": "Plej novaj aplikaĵoj"
        },
        "news": {
            "heading": "Novaĵoj"
        },
        "search": {
            "heading": "Serĉi aplikaĵojn",
            "noscript": "Postulas aktivan ĝavoskripton",
            "search": "Serĉi"
        }
    }
}
